Cycle 0: 
Fetch instruction: subi $8, $0, -10
Decode instruction: 
Execute instruction: 
Memory instruction: 
Writeback instruction: 
$0: 0   	$8: 0   	$16: 0   	$24: 0
$1: 0   	$9: 0   	$17: 0   	$25: 0
$2: 0   	$10: 0   	$18: 0   	$26: 0
$3: 0   	$11: 0   	$19: 0   	$27: 0
$4: 0   	$12: 0   	$20: 0   	$28: 0
$5: 0   	$13: 0   	$21: 0   	$29: 0
$6: 0   	$14: 0   	$22: 0   	$30: 0
$7: 0   	$15: 0   	$23: 0   	$31: 0

Cycle 1: 
Fetch instruction: subi $9, $0, -25
Decode instruction: subi $8, $0, -10
Execute instruction: 
Memory instruction: 
Writeback instruction: 
$0: 0   	$8: 0   	$16: 0   	$24: 0
$1: 0   	$9: 0   	$17: 0   	$25: 0
$2: 0   	$10: 0   	$18: 0   	$26: 0
$3: 0   	$11: 0   	$19: 0   	$27: 0
$4: 0   	$12: 0   	$20: 0   	$28: 0
$5: 0   	$13: 0   	$21: 0   	$29: 0
$6: 0   	$14: 0   	$22: 0   	$30: 0
$7: 0   	$15: 0   	$23: 0   	$31: 0

Cycle 2: 
Fetch instruction: sw $8, 12($0)
Decode instruction: subi $9, $0, -25
Execute instruction: subi $8, $0, -10
Memory instruction: 
Writeback instruction: 
$0: 0   	$8: 0   	$16: 0   	$24: 0
$1: 0   	$9: 0   	$17: 0   	$25: 0
$2: 0   	$10: 0   	$18: 0   	$26: 0
$3: 0   	$11: 0   	$19: 0   	$27: 0
$4: 0   	$12: 0   	$20: 0   	$28: 0
$5: 0   	$13: 0   	$21: 0   	$29: 0
$6: 0   	$14: 0   	$22: 0   	$30: 0
$7: 0   	$15: 0   	$23: 0   	$31: 0

Cycle 3: 
Fetch instruction: lw $10, 2($8)
Decode instruction: sw $8, 12($0)
Execute instruction: subi $9, $0, -25
Memory instruction: subi $8, $0, -10
Writeback instruction: 
$0: 0   	$8: 0   	$16: 0   	$24: 0
$1: 0   	$9: 0   	$17: 0   	$25: 0
$2: 0   	$10: 0   	$18: 0   	$26: 0
$3: 0   	$11: 0   	$19: 0   	$27: 0
$4: 0   	$12: 0   	$20: 0   	$28: 0
$5: 0   	$13: 0   	$21: 0   	$29: 0
$6: 0   	$14: 0   	$22: 0   	$30: 0
$7: 0   	$15: 0   	$23: 0   	$31: 0

Cycle 4: 
Fetch instruction: 
Decode instruction: lw $10, 2($8)
Execute instruction: sw $8, 12($0)
Memory instruction: subi $9, $0, -25
Writeback instruction: subi $8, $0, -10
$0: 0   	$8: 10   	$16: 0   	$24: 0
$1: 0   	$9: 0   	$17: 0   	$25: 0
$2: 0   	$10: 0   	$18: 0   	$26: 0
$3: 0   	$11: 0   	$19: 0   	$27: 0
$4: 0   	$12: 0   	$20: 0   	$28: 0
$5: 0   	$13: 0   	$21: 0   	$29: 0
$6: 0   	$14: 0   	$22: 0   	$30: 0
$7: 0   	$15: 0   	$23: 0   	$31: 0

Cycle 5: 
Fetch instruction: 
Decode instruction: 
Execute instruction: lw $10, 2($8)
Memory instruction: sw $8, 12($0)
Writeback instruction: subi $9, $0, -25
$0: 0   	$8: 10   	$16: 0   	$24: 0
$1: 0   	$9: 25   	$17: 0   	$25: 0
$2: 0   	$10: 0   	$18: 0   	$26: 0
$3: 0   	$11: 0   	$19: 0   	$27: 0
$4: 0   	$12: 0   	$20: 0   	$28: 0
$5: 0   	$13: 0   	$21: 0   	$29: 0
$6: 0   	$14: 0   	$22: 0   	$30: 0
$7: 0   	$15: 0   	$23: 0   	$31: 0

Cycle 6: 
Fetch instruction: 
Decode instruction: 
Execute instruction: 
Memory instruction: lw $10, 2($8)
Writeback instruction: sw $8, 12($0)
$0: 0   	$8: 10   	$16: 0   	$24: 0
$1: 0   	$9: 25   	$17: 0   	$25: 0
$2: 0   	$10: 0   	$18: 0   	$26: 0
$3: 0   	$11: 0   	$19: 0   	$27: 0
$4: 0   	$12: 0   	$20: 0   	$28: 0
$5: 0   	$13: 0   	$21: 0   	$29: 0
$6: 0   	$14: 0   	$22: 0   	$30: 0
$7: 0   	$15: 0   	$23: 0   	$31: 0

Cycle 7: 
Fetch instruction: 
Decode instruction: 
Execute instruction: 
Memory instruction: 
Writeback instruction: lw $10, 2($8)
$0: 0   	$8: 10   	$16: 0   	$24: 0
$1: 0   	$9: 25   	$17: 0   	$25: 0
$2: 0   	$10: 10   	$18: 0   	$26: 0
$3: 0   	$11: 0   	$19: 0   	$27: 0
$4: 0   	$12: 0   	$20: 0   	$28: 0
$5: 0   	$13: 0   	$21: 0   	$29: 0
$6: 0   	$14: 0   	$22: 0   	$30: 0
$7: 0   	$15: 0   	$23: 0   	$31: 0

Cycles: 8
Instructions Executed: 4

