0
4
8
12
16
20
24
28
32
36
40
44
48
52
56
60
68
76
84
92
100
108
116
0
4
8
12
16
128
132
136
140
144
0
4
8
12
16
128
132
136
140
144
0
4
8
12
16
20
24
28
32
36
40
44
48
52
56
60
68
76
84
92
100
108
116
0
4
8
12
16
20
24
28
32
36
40
44
48
52
56
60
68
76
84
92
100
108
116
0
4
8
12
16
20
24
28
32
36
40
44
48
52
56
